31400
23750
21509
13487
12804
13011
20281
13047
14073
15189
13920
12520
13917
13108
14797
17339
12423
14187
12217
12258
13972
12152
11867
19305
14882
16822
14827
15948
12790
12981
13357
14363
14856
13180
13050
13431
14934
13342
13484
12852
14718
13690
12949
13603
13587
15488
20002
15858
14027
16829
16056
16709
14010
13794
14595
14414
15113
13635
13782
15027
15291
15037
18588
15225
14561
13824
14435
15601
26882
25282
28993
25774
25347
47497
15164
14140
14963
14287
14612
15487
15040
19484
16721
14313
21885
16711
15448
15680
18481
15475
14900
14579
14482
14498
14287
17463
14843
14539
14391
14298
14520
14346
18919
14735
14527
14688
14253
14954
15055
15555
15585
15419
16127
19623
15582
15764
15320
15614
15592
15732
17768
15490
14883
15689
15266
16009
19934
15287
15352
15327
15889
18364
17063
18358
15593
15428
18426
16271
16148
15713
15592
18612
16599
16559
16477
16230
18647
19721
17024
16535
20536
16780
16892
15865
16179
15874
16720
16771
16882
16781
23629
17244
16983
17419
18706
17488
18244
18343
18024
17323
17528
18007
18883
19147
17622
17266
17546
16731
17692
17305
20425
17751
17488
17714
20780
17528
17987
18259
19897
21062
18056
18456
18088
18041
18031
18655
21064
19875
17686
22745
20624
22498
20438
20506
19030
18603
19070
18700
18402
18334
18025
24322
19175
18833
18934
23503
19430
18789
18925
19573
20056
19904
25041
20370
20209
24853
19890
19804
20925
22195
20103
19610
25544
21173
21051
26708
18912
18946
18884
18450
19776
18463
18743
18380
21453
18363
18631
18546
19319
18957
21217
21303
21251
19504
19475
18894
19197
18573
18588
18216
18828
18567
18594
19136
19550
23179
20920
19071
19344
21280
20292
22447
20447
20679
24954
20594
19511
22276
20996
20441
24040
20236
19920
26034
20357
20170
32916
20639
20269
25635
21041
23459
21209
20595
26692
20901
20332
26462
22350
25320
22552
21381
27918
20906
23481
27599
21163
23406
21830
21117
25335
21648
22911
20942
21066
27615
22466
24231
30737
31253
43811
44947
31352
26970
23273
24007
22961
26912
22782
27832
22721
21709
26166
22640
27935
22082
22278
30103
25702
30925
23587
26099
23494
23135
27719
22948
28695
22467
24998
22944
25006
23783
23653
23036
26856
24315
28451
23074
23749
23099
23579
23361
23356
23250
23628
23264
24854
23854
24630
23606
23931
23275
23938
23271
25755
24933
25997
23640
23631
27141
23062
22905
24117
22537
25489
25077
25967
25460
26429
24069
26378
24621
26387
23892
27528
25382
28113
25923
28528
23772
27929
25108
26646
23372
25638
23347
27073
24414
23803
24432
23737
24660
24172
24008
25543
23579
23797
24196
23643
30801
31562
25675
31351
24771
31203
24597
30655
24909
31642
23409
34078
27291
33685
36161
36744
24593
26520
28050
28410
33300
27229
32099
25705
30521
24905
33040
25268
25175
27395
25930
29862
25716
31337
27056
38511
30450
27055
31337
26599
36978
149213
31257
30967
28275
31570
26837
32875
30866
27742
30395
27669
31406
27499
34338
29684
27755
31197
26869
32865
27636
34425
27099
28286
35386
28599
32502
27504
26940
31837
27558
33964
27523
27035
33435
28391
31977
28536
32880
31838
29282
33708
31293
32506
32170
31862
39345
31285
28408
33970
32553
32430
33559
28485
33406
30894
32675
35065
31290
30288
33248
30008
35539
41698
29361
28510
31517
30421
28456
35350
29516
30095
33111
31808
28385
33938
27598
37070
34044
27780
31860
31285
29334
32304
34288
30502
28919
33261
41337
30461
41087
36369
28299
35152
35646
28475
34815
37005
29194
38728
48045
27710
40693
39675
99821
64769
34518
29315
29733
35591
34522
28931
35816
38513
35646
29887
42456
33841
30218
39844
34676
32656
29607
35643
37473
31587
36353
33634
31924
30727
36206
33339
30421
36963
34173
29770
29900
36065
33855
30046
29475
34822
33923
34150
33604
34635
36073
32047
30340
35659
37121
31323
30921
35568
36320
31646
31911
38000
35008
30505
30382
34580
36123
31232
32095
35200
37844
36794
32902
39846
40041
39160
39078
32560
38085
42346
39768
31737
40155
41071
37278
32308
32981
40438
43136
37495
34314
38593
42982
47153
113135
43088
38504
39104
37609
32002
34537
34544
41312
42354
40055
31701
31611
37678
39346
37475
33033
31140
38568
40545
35061
32145
31779
39040
35612
34249
36860
34558
31718
38309
39193
36951
37733
32678
38420
33217
34397
40880
40651
37783
36795
37982
32980
32383
33467
32982
32784
33204
32355
40963
41382
39022
37762
38887
34706
33355
32851
33505
33437
36731
33587
34532
36616
37517
34675
33633
33357
33422
32968
32481
33249
33196
34036
34111
34360
36779
150184
40546
33222
38004
36491
32825
39195
33721
34062
33500
34081
40041
41732
36473
35172
34412
34341
34376
33733
33656
33653
34069
34319
34699
36551
37165
40938
34258
34428
34132
34301
34734
34163
34816
34904
35170
34659
34961
34778
43102
37890
35388
35581
35325
35511
40524
36004
38854
35847
36316
35507
35994
38526
37422
40643
38814
38003
39977
36169
37340
36867
38836
36505
35182
35785
36272
39593
42412
143724
50393
48574
48523
55469
56696
58062
58642
53381
52964
41149
40870
37438
35708
36628
36806
38281
37022
40603
42664
37692
35293
36351
39611
36912
38902
38800
37508
37856
37430
37856
38566
38415
37111
37227
36940
37195
37776
37350
36683
39353
38222
37444
36361
39698
46312
46383
46459
45112
45480
44571
42175
42574
42354
42874
45145
44907
45303
44781
42333
42849
45261
137185
50169
42219
45518
44854
43793
46811
38549
93678
43143
44389
44761
43627
45703
44798
42469
45296
46386
43704
45539
43104
45929
38439
42839
47494
45841
43312
45341
45804
45072
42905
42705
44529
39743
44278
44148
45618
48628
48445
48279
46975
46304
40176
45946
45329
45754
44348
53323
49147
47451
46344
48560
49074
47391
47280
50109
45987
51133
139167
65262
50611
41313
44043
45786
47309
46307
49653
48943
41414
44623
44915
44380
45386
45681
45525
41840
45389
47988
46789
46871
45714
50001
43428
45726
47492
48149
45403
46135
50239
46374
47153
45303
45421
49062
40031
47643
47527
46788
56055
50495
42957
45464
48220
50274
49624
50201
45315
46495
51999
55202
54076
42355
53352
108352
67500
47671
47833
52007
54496
42799
48808
50647
50690
51279
42211
48333
47039
52822
51144
43304
48751
48767
50033
50123
45206
51167
52432
51039
50521
47926
50404
49851
50049
51300
46618
